{
	"graph": {
		"nodes": [{"id": "1"},
			{"id": "2"},
			{"id": "3"},
			{"id": "4"},
			{"id": "5"},
			{"id": "6"}],
		"edges": [{"source": "1","target": "3"},
			{"source": "1","target": "4"},
			{"source": "2","target": "1"},
			{"source": "2","target": "4"},
			{"source": "2","target": "5"},
			{"source": "3","target": "1"},
			{"source": "4","target": "5"},
			{"source": "5","target": "2"},
			{"source": "5","target": "6"},
			{"source": "6","target": "3"},
			{"source": "6","target": "4"}]
	}
}
